{
  "ExamInfo": {
    "examName": "PSM 1",
    "numberOfQuestionsInExam": 100,
    "passPercentage": 85
  },
  "ExamQuestions": [
    {
      "id": 1,
      "question": "Is selecting a Product Owner a Development Team responsibility?",
      "prereq": "Choose one answer",
      "answers": {
        "a": "True",
        "b": "False"
      },
      "correctAnswer": [
        "b"
      ]
    },
    {
      "id": 2,
      "question": "Name three feedback loops in Scrum?",
      "prereq": "Choose three answers",
      "answers": {
        "a": "Release Planning",
        "b": "Refinement Meeting",
        "c": "Sprint Review",
        "d": "Sprint Retrospective",
        "e": "Daily Scrum"
      },
      "correctAnswer": [
        "c",
        "d",
        "e"
      ]
    },
    {
      "id": 3,
      "question": "Who determines how work is performed during the Sprint?",
      "prereq": "Choose one answer",
      "answers": {
        "a": "Development Team members",
        "b": "Subject matter experts",
        "c": "The Scrum Master",
        "d": "The Development Team",
        "e": "Architects"
      },
      "correctAnswer": [
        "d"
      ]
    },
    {
      "id": 4,
      "question": "A Scrum Team has been working on a product for nine Sprints. A new Product Owner comes in, understanding he is accountable for the Product Backlog. However, he is unsure about his responsibilities. Name two activities that are part of the Product Owner role according to Scrum?",
      "prereq": "Choose two answers",
      "answers": {
        "a": "Describing features as Use Cases",
        "b": "Ensuring that the most valuable functionality is produced first, at all times",
        "c": "Providing the Development Team with detailed specifications",
        "d": "Creating detailed functional test cases",
        "e": "Interacting with stakeholders"
      },
      "correctAnswer": [
        "b",
        "e"
      ]
    },
    {
      "id": 5,
      "question": "Name the activities a Product Owner would typically undertake in the phase between the end of the current Sprint and the start of the next Sprint?",
      "prereq": "Choose one answer",
      "answers": {
        "a": "Update the project plan with stakeholders",
        "b": "Work with the QA departments on the Increment of the current Sprint",
        "c": "There are no such activities. The next Sprint starts immediately after the current Sprint",
        "d": "Refine the Product Backlog"
      },
      "correctAnswer": [
        "c"
      ]
    },
    {
      "id": 6,
      "question": "For which is the Scrum Master responsible?",
      "prereq": "Choose one answer",
      "answers": {
        "a": "The Scrum process being adopted and used properly",
        "b": "The meetings and the objectives that a Scrum Team sets for itself",
        "c": "Managing the performance of the Scrum Teamn",
        "d": "Keeping track of resource allocation"
      },
      "correctAnswer": [
        "a"
      ]
    },
    {
      "id": 7,
      "question": "What does it mean for a Development Team to be cross-functional?",
      "prereq": "Choose one answer",
      "answers": {
        "a": "The Development Team is a virtual team drawing from separate teams of business analysts, architects, developers and testers.",
        "b": "The Development Team includes not only developers but also business analysts, architects, developers and testers.",
        "c": "The Development Team includes cross-skilled individuals who are able to contribute to do what is necessary to deliver an increment of software",
        "d": "Developers on the Development Team work closely with business analysts, architects, developers and testers who are not on the team"
      },
      "correctAnswer": [
        "c"
      ]
    },
    {
      "id": 8,
      "question": "Who should make sure everyone on the Development Team does his or her tasks for the Sprint?",
      "prereq": "Choose one answer",
      "answers": {
        "a": "The Product Owner",
        "b": "The Project Manager",
        "c": "The Scrum Master",
        "d": "The Development Team",
        "e": "All of the above"
      },
      "correctAnswer": [
        "d"
      ]
    },
    {
      "id": 9,
      "question": "What is the primary way a Scrum Master keeps a Development Team working at its highest level of productivity?",
      "prereq": "Choose one answer",
      "answers": {
        "a": "By ensuring the meetings start and end at the proper time",
        "b": "By keeping high value features high in the Product Backlo",
        "c": "By facilitating Development Team decisions and removing impediments",
        "d": "By preventing changes to the backlogs once the Sprint begins"
      },
      "correctAnswer": [
        "c"
      ]
    },
    {
      "id": 10,
      "question": "Every Development Team should have:",
      "prereq": "Choose one answer",
      "answers": {
        "a": "The competencies and skills needed to deliver a Done increment in a Sprint",
        "b": "One Lead Developer and no more than 8 other members",
        "c": "At least one representative from each major software engineering discipline (like QA, Dev, UX)."
      },
      "correctAnswer": [
        "a"
      ]
    },
    {
      "id": 11,
      "question": "What does it mean to say that an event has a time-box?",
      "prereq": "Choose one answer",
      "answers": {
        "a": "The event must take at least a minimum amount of time",
        "b": "The event must happen at a set time",
        "c": "The event can take no more than a maximum amount of time",
        "d": "The event must happen by a given time",
        "e": "How the team does its work"
      },
      "correctAnswer": [
        "c"
      ]
    },
    {
      "id": 12,
      "question": "Who is responsible for engaging the stakeholders?",
      "prereq": "Choose one answer",
      "answers": {
        "a": "The Product Owner",
        "b": "The team manager",
        "c": "The project manager",
        "d": "The business analyst",
        "e": "The Development Team"
      },
      "correctAnswer": [
        "a"
      ]
    },
    {
      "id": 13,
      "question": "Is a Sprint Retrospective required by Scrum?",
      "prereq": "Choose one answer",
      "answers": {
        "a": "True",
        "b": "False"
      },
      "correctAnswer": [
        "a"
      ]
    },
    {
      "id": 14,
      "question": "What may a Development Team deliver at the end of a Sprint?",
      "prereq": "Choose one answer",
      "answers": {
        "a": "Failing unit tests, to identify acceptance tests for the next Sprint",
        "b": "An increment of working software that is ‘done’",
        "c": "An increment of software with minor known bugs in it",
        "d": "A single document, if that is what the Scrum Master asked for"
      },
      "correctAnswer": [
        "b"
      ]
    },
    {
      "id": 15,
      "question": "As a Scrum Master, how would you divide a group of 100 people into multiple Development Teams?",
      "prereq": "Choose one answer",
      "answers": {
        "a": "It doesn't really matter because you can rotate the teams every Sprint to spread knowledge",
        "b": "Tell the group about the product, the product vision, and rules of the Scrum framework. They then form into teams",
        "c": "Create a matrix of skills, seniority, and level of experience to assign people to teams",
        "d": "Check with the allocation departments to see who has worked together before and make these the first teams"
      },
      "correctAnswer": [
        "b"
      ]
    },
    {
      "id": 16,
      "question": "Name three roles on a Scrum Team?",
      "prereq": "Choose all that apply",
      "answers": {
        "a": "Scrum Master",
        "b": "Users",
        "c": "Development Team",
        "d": "Product Owner",
        "e": "Customers"
      },
      "correctAnswer": [
        "a",
        "c",
        "d"
      ]
    },
    {
      "id": 17,
      "question": "What is the recommended size for a Development Team?",
      "prereq": "Choose one answer",
      "answers": {
        "a": "At least 7",
        "b": "3 to 9",
        "c": "7 plus or minus 3",
        "d": "9"
      },
      "correctAnswer": [
        "b"
      ]
    },
    {
      "id": 18,
      "question": "Name two ways of creating Development Teams that are consistent with Scrum's values?",
      "prereq": "Choose two answers",
      "answers": {
        "a": "Bring all the developers together and let them self-organize into Development Teams",
        "b": "Managers collaborate to assign individuals to specific teams",
        "c": "Managers personally re-assign current subordinates to new teams",
        "d": "Existing teams propose how they would like to go about organizing into the new structure",
        "e": "The Chief Product Owner determines the new team structures and assignments"
      },
      "correctAnswer": [
        "a",
        "d"
      ]
    },
    {
      "id": 19,
      "question": "Should a Product Owner be working with the stakeholders and answer questions from the Development Team during a Sprint?",
      "prereq": "Choose two answers",
      "answers": {
        "a": "True",
        "b": "False"
      },
      "correctAnswer": [
        "a"
      ]
    },
    {
      "id": 20,
      "question": "You have just started at a company that is new to Scrum. You are the new Scrum Master for six Scrum Teams working on one product. Should you strive to have one Product Backlog and only one Product Owner?",
      "prereq": "Choose two answers",
      "answers": {
        "a": "True",
        "b": "False"
      },
      "correctAnswer": [
        "a"
      ]
    },
    {
      "id": 21,
      "question": "as the Development Team starts work during the Sprint, it realizes it has selected too much work to finish in the Sprint. What should it do?",
      "prereq": "Choose one answer",
      "answers": {
        "a": "Reduce the definition of 'done' and get all of the Product Backlog items 'done' by the new definition",
        "b": "Find another Scrum Team to give the excess work to",
        "c": "Inform the Product Owner at the Sprint Review, but prior to the demonstration",
        "d": "As soon as possible in the Sprint, work with the Product Owner to remove some work or Product Backlog items."
      },
      "correctAnswer": [
        "d"
      ]
    },
    {
      "id": 22,
      "question": "Scrum is a methodology that tells in detail how to build software incrementally.",
      "prereq": "Choose one answer",
      "answers": {
        "a": "True",
        "b": "False"
      },
      "correctAnswer": [
        "b"
      ]
    },
    {
      "id": 23,
      "question": "Who is responsible for clearly expressing Product Backlog items?",
      "prereq": "Choose one answer",
      "answers": {
        "a": "The Product Owner",
        "b": "The Scrum Master",
        "c": "The business analyst who represents the Product Owner in the Development Team",
        "d": "The Scrum Master, or the Scrum Master may have the Development Team do it"
      },
      "correctAnswer": [
        "a"
      ]
    },
    {
      "id": 24,
      "question": "What is the most effective way a Scrum Master can keep a Development Team working at its highest level of productivity?",
      "prereq": "Choose one answer",
      "answers": {
        "a": "Facilitate Development Team decisions and remove impediments",
        "b": "Ensure the meetings start and end at the proper time",
        "c": "Prevent changes to the backlogs once the Sprint begins",
        "d": "Keep high value features high in the Product Backlog"
      },
      "correctAnswer": [
        "a"
      ]
    },
    {
      "id": 25,
      "question": "What three factors are best considered when establishing the Sprint length?",
      "prereq": "Choose three answers",
      "answers": {
        "a": "The need for a consistent Sprint cadence throughout the organization",
        "b": "The possible disconnect with stakeholder's expectations",
        "c": "The ability to go to market with a product release",
        "d": "The frequency at which team formation can be changed",
        "e": "The level of uncertainty over the technology to be used"
      },
      "correctAnswer": [
        "a",
        "b",
        "c"
      ]
    },
    {
      "id": 26,
      "question": "Name three responsibilities of a self-organizing Development Team.",
      "prereq": "Choose three answers",
      "answers": {
        "a": "Do the work planned in the Sprint Backlog",
        "b": "Reorder the Product Backlog",
        "c": "Pull Product Backlog items for the Sprint",
        "d": "Increase velocity",
        "e": "Report daily progress to stakeholders",
        "f": "Set the time for the Daily Scrum"
      },
      "correctAnswer": [
        "a",
        "c",
        "f"
      ]
    },
    {
      "id": 27,
      "question": "What best describes a Product Owner’s responsibility?",
      "prereq": "Choose one answer",
      "answers": {
        "a": "Keeping stakeholders at bay",
        "b": "Managing the project and ensuring that the work meets the commitments to the stakeholders",
        "c": "Optimizing the value of the work the Development Team does",
        "d": "Directing the Development Team"
      },
      "correctAnswer": [
        "c"
      ]
    },
    {
      "id": 28,
      "question": "A Scrum Team is only allowed to meet with stakeholders during Sprint Review.",
      "prereq": "Choose one answer",
      "answers": {
        "a": "True",
        "b": "False"
      },
      "correctAnswer": [
        "b"
      ]
    },
    {
      "id": 29,
      "question": "When a group of 100 people forming into multiple Scrum Teams, is team size and the mixture of skills in each team important?",
      "prereq": "Choose two answers",
      "answers": {
        "a": "True",
        "b": "False"
      },
      "correctAnswer": [
        "a"
      ]
    },
    {
      "id": 30,
      "question": "A new developer is having continuing conflicts with existing Development Team members and creating a hostile environment. If necessary, who is responsible for removing the team member?",
      "prereq": "Choose one answer",
      "answers": {
        "a": "The Product Owner is responsible, because the/she controls the return on investment (ROI)",
        "b": "The Development Team is responsible, and may need help from the Scrum Master",
        "c": "The Scrum Master is responsible, because he/she removes impediments",
        "d": "The hiring manager is responsible, because he/she hired the developer"
      },
      "correctAnswer": [
        "b"
      ]
    },
    {
      "id": 31,
      "question": "Who has the final say on the order of the Product Backlog?",
      "prereq": "Choose one answer",
      "answers": {
        "a": "The CEO",
        "b": "The Development Team",
        "c": "The Stakeholders",
        "d": "The Product Owner",
        "e": "The Scrum Master"
      },
      "correctAnswer": [
        "d"
      ]
    },
    {
      "id": 32,
      "question": "You are the Scrum Master on a newly formed Scrum Team. Name three activities that would probably help the team in starting up?",
      "prereq": "Choose three answers",
      "answers": {
        "a": "Have the Scrum Team members introduce themselves to each other and give a brief background of their skills and work history",
        "b": "Ask the Product Owner to discuss the product or project, its history, goals, and context, as well as answer questions",
        "c": "Have the development managers for each Development Team member introduce their direct reports and go over their responsibilities on the Scrum team",
        "d": "Ensure the Scrum Team members have compatible personalities",
        "e": "Ensure the team understand they need a definition of 'done'",
        "f": "Introduce a bonus system for the top performers in the team"
      },
      "correctAnswer": [
        "a",
        "b",
        "e"
      ]
    },
    {
      "id": 33,
      "question": "A properly functioning Scrum Team will have at least one Release Sprint and may well have several.",
      "prereq": "Choose one answer",
      "answers": {
        "a": "True",
        "b": "False"
      },
      "correctAnswer": [
        "b"
      ]
    },
    {
      "id": 34,
      "question": "What are three benefits of self-organization?",
      "prereq": "Choose three answers",
      "answers": {
        "a": "Increased commitment",
        "b": "Increased self-accountability",
        "c": "Increased rule compliance",
        "d": "Increased accuracy of estimates",
        "e": "Increased creativity"
      },
      "correctAnswer": [
        "a",
        "b",
        "d"
      ]
    },
    {
      "id": 35,
      "question": "Multiple Scrum Teams working on the same project must have the same Sprint start date.",
      "prereq": "Choose one answer",
      "answers": {
        "a": "True",
        "b": "False"
      },
      "correctAnswer": [
        "b"
      ]
    },
    {
      "id": 36,
      "question": "A Product Owner wants advice from the Scrum Master about the estimating work in Scrum. What should the Scrum Master say to the Product Owner?",
      "prereq": "Choose one answer",
      "answers": {
        "a": "Estimates must be i relative units",
        "b": "Scrum forbids estimating",
        "c": "Product Backlog items must be estimated in story points",
        "d": "Estimates are made by the Product Owner, but are best checked with the Development Team",
        "e": "Estimates are made by the Development Team"
      },
      "correctAnswer": [
        "e"
      ]
    },
    {
      "id": 37,
      "question": "What should be a guideline that a Scrum Master could use to divide a group of 100 people into multiple Development Teams?",
      "prereq": "Choose two answers",
      "answers": {
        "a": "Let the Development Teams decide",
        "b": "Create teams to work on different layers (such as database, UI, etc)",
        "c": "Ask the developers to divide themselves into teams",
        "d": "Let the Product Owner decide",
        "e": "Ask the Product Owner to assign the teams"
      },
      "correctAnswer": [
        "c"
      ]
    },
    {
      "id": 38,
      "question": "Cross-functional teams are optimized to work on one technical layer of a system only (eg GUI, database, middle tier, interfaces).",
      "prereq": "Choose one answer",
      "answers": {
        "a": "True",
        "b": "False"
      },
      "correctAnswer": [
        "b"
      ]
    },
    {
      "id": 39,
      "question": "A member of the Development Team takes the Scrum Master aside to express his concerns about data security issues. What should the Scrum Master do?",
      "prereq": "Choose one answer",
      "answers": {
        "a": "Add security to the definition of 'done'",
        "b": "Tell the Product Owner to stop further development of features until the issues are fixed",
        "c": "Ask the person to share the issue with the team as soon as possible",
        "d": "Create a Product Backlog item for security",
        "e": "Go check with the testers"
      },
      "correctAnswer": [
        "c"
      ]
    },
    {
      "id": 40,
      "question": "What best describes Scrum?",
      "prereq": "Choose one answer",
      "answers": {
        "a": "A complete methodology that defines how to develop software",
        "b": "A defined and predictive process that conforms to the principles of Scientific Management",
        "c": "A cookbook that defines best practices for software development",
        "d": "A framework within which complex products in complex environments are developed"
      },
      "correctAnswer": [
        "d"
      ]
    },
    {
      "id": 41,
      "question": "What are two responsibilities of testers in a Development Team?",
      "prereq": "Choose two answers",
      "answers": {
        "a": "Tracking quality metrics",
        "b": "Finding bugs",
        "c": "Scrum has no 'tester' role",
        "d": "Verifying the work of programmers",
        "e": "Everyone in the Development Team is responsible for quality"
      },
      "correctAnswer": [
        "c",
        "e"
      ]
    },
    {
      "id": 42,
      "question": "A Scrum Master is keeping a list of open impediments, but it is growing and he/she has been able to resolve only a small portion of the impediments. What should he do in this situation?",
      "prereq": "Choose three answers",
      "answers": {
        "a": "Alert management to the impediments and their impact",
        "b": "Prioritize the list and work on them in order",
        "c": "Consult with the Development Team",
        "d": "Arrange a triage meeting with all other project managers",
        "e": "Discuss the absence of management support with the Development Team",
        "f": "Tell the Product Owner that Scrum isn't working"
      },
      "correctAnswer": [
        "a",
        "b",
        "c"
      ]
    },
    {
      "id": 43,
      "question": "What two things are appropriate for a Scrum Master to do if the Development Team doesn't have the engineering tools and infrastructure to completely finish each selected Product Backlog item?",
      "prereq": "Choose two answers",
      "answers": {
        "a": "Declare the Development Team not ready for Scrum",
        "b": "Encourage the Product Owner to accept partially done Increments until the situation improves",
        "c": "Refocus the current Sprint on establishing the Development Team's infrastructure instead of delivering an Increment",
        "d": "Have the Development Team establish a definition of 'done' that is actually possible to achieve given current circumstances",
        "e": "Coach the Development Team to improve its skills, tools and infrastructure over the time and adjust the definition of 'done' accordingly"
      },
      "correctAnswer": [
        "d",
        "e"
      ]
    },
    {
      "id": 44,
      "question": "What is a Development Team responsible for?",
      "prereq": "Choose two answers",
      "answers": {
        "a": "Reporting productivity",
        "b": "Selecting the Product Owner",
        "c": "Resolving internal team conflicts",
        "d": "Organizing the work required to meet the Sprint Goal"
      },
      "correctAnswer": [
        "c",
        "d"
      ]
    },
    {
      "id": 45,
      "question": "Which topic should be discussed in the Sprint Review?",
      "prereq": "Choose one answer",
      "answers": {
        "a": "Coding and engineering practices",
        "b": "The Scrum process, and how it was used during the Sprint",
        "c": "Sprint results",
        "d": "All of the above"
      },
      "correctAnswer": [
        "c"
      ]
    },
    {
      "id": 46,
      "question": "Why is the Daily Scrum held at the same time and same place?",
      "prereq": "Choose one answer",
      "answers": {
        "a": "The place can be named",
        "b": "The consistency reduces complexity",
        "c": "Rooms are hard to book and this lets it be booked in advance",
        "d": "The Product Owner demands it"
      },
      "correctAnswer": [
        "b"
      ]
    },
    {
      "id": 47,
      "question": "Which Scrum Values are affected by a lack of trust in the Scrum Team?",
      "prereq": "Choose all answers",
      "answers": {
        "a": "Commitment",
        "b": "Focus",
        "c": "Opennes",
        "d": "Courage",
        "e": "Respect"
      },
      "correctAnswer": [
        "a",
        "b",
        "c",
        "d",
        "e"
      ]
    },
    {
      "id": 48,
      "question": "The Sprint Review is mainly an inspect and adapt opportunity for which group?",
      "prereq": "Choose one answer",
      "answers": {
        "a": "The Product Owner and management",
        "b": "The Product Owner and Development Team",
        "c": "The Development Team and management",
        "d": "The Development Team and stakeholders",
        "e": "The Product Owner and stakeholders",
        "f": "The Scrum Team and stakeholders"
      },
      "correctAnswer": [
        "f"
      ]
    },
    {
      "id": 49,
      "question": "What are NOT appropriate topics for discussion in a Sprint Retrospective?",
      "prereq": "Choose two answers",
      "answers": {
        "a": "Team relations",
        "b": "Definition of 'Done'",
        "c": "Sprint Backlog for the next Sprint",
        "d": "The value of work currently represented in the Product Backlog",
        "e": "How the team does its work"
      },
      "correctAnswer": [
        "c",
        "d"
      ]
    },
    {
      "id": 50,
      "question": "What are two good ways for a Scrum Team to ensure security concerns are satisfied?",
      "prereq": "Choose two answers",
      "answers": {
        "a": "Add security concerns to the definition of Done",
        "b": "Add a Sprint to specifically resolve all security concerns",
        "c": "Have the Scrum Team create Product Backlog items for each concern",
        "d": "Postpone the work until a specialist can perform a security audit and create a lit os security-related Product Backlog items",
        "e": "Delegate the work to the concerned department"
      },
      "correctAnswer": [
        "a",
        "c"
      ]
    },
    {
      "id": 51,
      "question": "Does Scrum have a role called ‘Project Manager’",
      "prereq": "Choose one answer",
      "answers": {
        "a": "Yes",
        "b": "No"
      },
      "correctAnswer": [
        "b"
      ]
    },
    {
      "id": 52,
      "question": "A product Increment must be released to production at the end of each Sprint.",
      "prereq": "Choose one answer",
      "answers": {
        "a": "True",
        "b": "False"
      },
      "correctAnswer": [
        "b"
      ]
    },
    {
      "id": 53,
      "question": "The Product Backlog is ordered by:",
      "prereq": "Choose one answer",
      "answers": {
        "a": "Importance, where is the most important items are at the top at all times",
        "b": "Size, where small items are at the top and large items are at the bottom",
        "c": "Items are randomly arranged",
        "d": "Risk, where the safer items are at the top, and riskier items are at the bottom"
      },
      "correctAnswer": [
        "a"
      ]
    },
    {
      "id": 54,
      "question": "During a Sprint Retrospective, for what is the Product Owner responsible?",
      "prereq": "Choose one answer",
      "answers": {
        "a": "The Product Owner should not take part in Sprint Retrospective",
        "b": "Capturing requirements for the Product Backlog",
        "c": "Participating as a Scrum Team member",
        "d": "Summarizing and reporting the discussions to the stakeholders that he/she represents in the Scrum Team"
      },
      "correctAnswer": [
        "c"
      ]
    },
    {
      "id": 55,
      "question": "Five new Scrum Teams have been created to build one product, A few of the developers on one of the Development Teams ask the Scrum Master how to coordinate their work with the other teams. What does the Scrum Master do?",
      "prereq": "Choose one answer",
      "answers": {
        "a": "Collect the Sprint tasks from the teams at the end of their Sprint Planning and merge that into a consolidated plan for the entire Sprint",
        "b": "Teach them that it is their responsibility to work with the other teams to create an integrated increment",
        "c": "Visit the five teams each day to inspect that their Sprint Backlogs are aligned",
        "d": "Teach the Product Owner to work with the lead developers on ordering Product Backlog in a way to aoid too much technical and development overlap during a Sprint"
      },
      "correctAnswer": [
        "b"
      ]
    },
    {
      "id": 56,
      "question": "At the end of a Sprint a Product Backlog item worked on during the Sprint does meet the definition of Done. What two things should happen with the undone Product Backlog item?",
      "prereq": "Choose two answers",
      "answers": {
        "a": "Do not include the item in the Increment this Sprint",
        "b": "If the stakeholders agree, the Product Owner can accept it and release it to the users",
        "c": "Review the item, add the 'Done' part of the estimate to the velocity and create a Story for the remaining work",
        "d": "Put it on the Product Backlog for the Product Owner to decide what to do with it"
      },
      "correctAnswer": [
        "b",
        "c"
      ]
    },
    {
      "id": 57,
      "question": "Who determines when it is appropriate to update the Sprint Backlog during a Sprint?",
      "prereq": "Choose one answer",
      "answers": {
        "a": "The Development Team",
        "b": "Th Project Manager",
        "c": "The Scrum Team",
        "d": "The Product Owner"
      },
      "correctAnswer": [
        "a"
      ]
    },
    {
      "id": 58,
      "question": "What are three benefits of self-organization?",
      "prereq": "Choose three answers",
      "answers": {
        "a": "Increased rule compliance",
        "b": "Increased commitment",
        "c": "Increased self-accountability",
        "d": "Increased creativity",
        "e": "Increased accuracy of estimates"
      },
      "correctAnswer": [
        "b",
        "c",
        "d"
      ]
    },
    {
      "id": 59,
      "question": "Multiple Scrum Teams working on the same product or system all select work from the same Product Backlog.",
      "prereq": "Choose one answer",
      "answers": {
        "a": "True",
        "b": "False"
      },
      "correctAnswer": [
        "a"
      ]
    },
    {
      "id": 60,
      "question": "When might a Sprint be abnormally terminated?",
      "prereq": "Choose one answer",
      "answers": {
        "a": "hen it becomes clear that not everything will be finished by the end of the Sprint",
        "b": "When the Sprint Goal becomes obsolete",
        "c": "When the sales department has an important new opportunity",
        "d": "When the Development Team feels that the work is too hard"
      },
      "correctAnswer": [
        "b"
      ]
    },
    {
      "id": 61,
      "question": "When multiple teams work together on the same product, each team should maintain a separate Product Backlog.",
      "prereq": "Choose one answer",
      "answers": {
        "a": "True",
        "b": "False"
      },
      "correctAnswer": [
        "b"
      ]
    },
    {
      "id": 62,
      "question": "Which three purposes does the definition of 'Done' serve?",
      "prereq": "Choose three answers",
      "answers": {
        "a": "Describe the purpose, objective, and time-box of each Scrum event",
        "b": "Guide the Development Team on how many Product Backlog items to select for the Sprint",
        "c": "Increase transparency",
        "d": "Describe the work that must be done before the Sprint is allowed to end",
        "e": "Create a shared understanding of when work is complete"
      },
      "correctAnswer": [
        "b",
        "c",
        "e"
      ]
    },
    {
      "id": 63,
      "question": "What are the two primary ways a Scrum Master keeps a Development Team working at its highest productivity?",
      "prereq": "Choose two answers",
      "answers": {
        "a": "By keeping high value featuers high in the Product Backlog",
        "b": "By removing impediments that hinder the Development Team",
        "c": "By facilitating Development Team decisions",
        "d": "By ensuring the meetings start and end at the proper time"
      },
      "correctAnswer": [
        "b",
        "c"
      ]
    },
    {
      "id": 64,
      "question": "What is included in the Sprint Backlog?",
      "prereq": "Choose one answer",
      "answers": {
        "a": "Tasks",
        "b": "User Stories",
        "c": "Use Cases",
        "d": "Tests",
        "e": "Any of the above (or others) which are a decomposition of the selected Product Backlog items"
      },
      "correctAnswer": [
        "e"
      ]
    },
    {
      "id": 65,
      "question": "The purpose of a Sprint is to produce a done Increment of product.",
      "prereq": "Choose one answer",
      "answers": {
        "a": "True",
        "b": "False"
      },
      "correctAnswer": [
        "a"
      ]
    },
    {
      "id": 66,
      "question": "Name 3 roles on a Scrum Team?",
      "prereq": "Choose all that apply",
      "answers": {
        "a": "Product Owner",
        "b": "Customers",
        "c": "Users",
        "d": "Development Team",
        "e": "Scrum Master"
      },
      "correctAnswer": [
        "a",
        "d",
        "e"
      ]
    },
    {
      "id": 67,
      "question": "The Product Owner determines how many Product Backlog items in the Development Team selects for a Sprint.",
      "prereq": "Choose one answer",
      "answers": {
        "a": "True, accordingly to what was committed to the stakeholders",
        "b": "True, but only after confirmation by the resource manager that the Team has enough capacity",
        "c": "True",
        "d": "False, the Scrum Master does that",
        "e": "False",
        "f": "False, capacity and committment are the Project manager's responsibility"
      },
      "correctAnswer": [
        "e"
      ]
    },
    {
      "id": 68,
      "question": "During the Daily Scrum, the Scrum Master’s role is to:",
      "prereq": "Choose one answer",
      "answers": {
        "a": "Teach the Development Team to keep the Daily Scrum within the 15 minute time-box",
        "b": "Lead the discussions of the Development Team",
        "c": "Manage the meeting ina  way that each team member has a chance to speak",
        "d": "Make sure that all 3 questions have been answered",
        "e": "All of the above"
      },
      "correctAnswer": [
        "a"
      ]
    },
    {
      "id": 69,
      "question": "What does it mean for a Development Team to be cross-functional?",
      "prereq": "Choose one answer",
      "answers": {
        "a": "The Development Team includes cross-skilled individuals who are able to contribue to do what is necessary to deliver an increment of software",
        "b": "The Development Team includes not only developers but also business analysts, architects, developers and testers",
        "c": "Developers on the Development Team work closely with business analysts, architects, deveopres and testers who are not on the team",
        "d": "The Development Team is a virtual team drawing from separate teams of business analysts, architects, developers and testers"
      },
      "correctAnswer": [
        "a"
      ]
    },
    {
      "id": 70,
      "question": "A Development Team selects a set of Product Backlog items for a Sprint Backlog with the intention to get selected items 'Done' by the end of the Sprint. What three phrases best describe the purpose of the definition of ‘Done’?",
      "prereq": "Choose three answers",
      "answers": {
        "a": "It provides a template for elements that need to be included in the technical documentation",
        "b": "It guides the Development Team in creating a forecast at the Sprint Planning",
        "c": "It creates transparency of the work inspected at the Sprint Review",
        "d": "It defines what it takes for an increment to be ready for release",
        "e": "It tracks the percent completeness of a Product Backlog item",
        "f": "It controls whether the developers have performed their tasks"
      },
      "correctAnswer": [
        "b",
        "c",
        "d"
      ]
    },
    {
      "id": 71,
      "question": "If burndown charts are used to visualize progress, what do they track?",
      "prereq": "Choose one answer",
      "answers": {
        "a": "Individual worker productivity",
        "b": "Accumulated business value deliverd to the customer",
        "c": "Work remaining across time",
        "d": "Accumulated cost"
      },
      "correctAnswer": [
        "c"
      ]
    },
    {
      "id": 72,
      "question": "In accordance with Scrum theory, how should a group of 100 people be divided into multiple Scrum Teams?",
      "prereq": "Choose one answer",
      "answers": {
        "a": "Create a matrix of skills, seniority, and level of experience to assign people to teams",
        "b": "Understanding the product, the product vision and the rules of the Scrum framework, the group divides itself into teams",
        "c": "It doesn't really matter because you can rotate the teams every Sprint to spread knowledge",
        "d": "Check with the allocation department to see who has worked together before and make these the first teams"
      },
      "correctAnswer": [
        "b"
      ]
    },
    {
      "id": 73,
      "question": "How should Product Backlog items be chosen when multiple Scrum Teams work from the same Product Backlog?",
      "prereq": "Choose one answer",
      "answers": {
        "a": "The Product Owner should provide each team with its own Product Backlog",
        "b": "The Development Teams pull in work in agreement with the Product Owner",
        "c": "The Scrum Team with the highest velocity pulls Product Backlog items first",
        "d": "The Product Owner decides",
        "e": "Each Scrum Team takes an equal number of items"
      },
      "correctAnswer": [
        "b"
      ]
    },
    {
      "id": 74,
      "question": "What best describes the Sprint Review?",
      "prereq": "Choose one answer",
      "answers": {
        "a": "It is a demo at the end of the Sprint for everyone in the organization to check on the work done",
        "b": "It is a mechanism to control the Development Team's activities during the Sprint",
        "c": "It is used to congratulate the Development Team if it did what it forecast, or to punish the Development Team if it failed to meet its forecast",
        "d": "It is when the Scrum Team and stakeholders inspect the outcome of a Sprint and figure out what to do next"
      },
      "correctAnswer": [
        "d"
      ]
    },
    {
      "id": 75,
      "question": "What are properties of the Daily Scrum?",
      "prereq": "Choose two answers",
      "answers": {
        "a": "It is held first thing in the morning",
        "b": "It is facilitated by the team lead",
        "c": "It is free form and designed to promote conversation",
        "d": "It consists of the Scrum Master asking the Team members the three questions",
        "e": "Its location and time should remain constant",
        "f": "It is fifteen minutes or less in duration"
      },
      "correctAnswer": [
        "e",
        "f"
      ]
    },
    {
      "id": 76,
      "question": "What are three ways Scrum promotes self-organization?",
      "prereq": "Choose three answers",
      "answers": {
        "a": "By being a lightweight framework",
        "b": "By the Development Team deciding what work to do in a Sprint",
        "c": "By preventing stakeholders from entering the development room",
        "d": "By removing titles for Development Team members",
        "e": "By not allowing documentation"
      },
      "correctAnswer": [
        "a",
        "b",
        "d"
      ]
    },
    {
      "id": 77,
      "question": "Cross-functional teams are optimized to work on one technical layer of a system.",
      "prereq": "Choose one answer",
      "answers": {
        "a": "True",
        "b": "False"
      },
      "correctAnswer": [
        "b"
      ]
    },
    {
      "id": 78,
      "question": "What best describes the Product Backlog?",
      "prereq": "Choose one answer",
      "answers": {
        "a": "It is allowed to grow and change as more is learned about the product and its customers",
        "b": "It is baselined to follow change management processes",
        "c": "It provides just enough infomation to enable a Scrum Team to start the design phase of a product",
        "d": "It contains all forseeable tasks and requirements from which the Scrum Team can develop and maintain a complete project plan"
      },
      "correctAnswer": [
        "a"
      ]
    },
    {
      "id": 79,
      "question": "The CEO asks the Development Team to add a 'very important' item to a Sprint that is in progress. What does the Development Team do?",
      "prereq": "Choose one answer",
      "answers": {
        "a": "Add the item to the current Sprint without any adjustments",
        "b": "Add the item to the current Sprint and drop an item of equal size",
        "c": "Inform the Product Owner so he/she can work with the CEO",
        "d": "Add the item to the next Sprint"
      },
      "correctAnswer": [
        "c"
      ]
    },
    {
      "id": 80,
      "question": "If burndown charts are used to visualize progress, what does a trend line through a release burndown chart indicate?",
      "prereq": "Choose one answer",
      "answers": {
        "a": "When the work remaining will likely be completed if nothing changes on the Product Backlog or the Development Team",
        "b": "When all work will be cmpleted so the Scrum Team can be released for other work",
        "c": "The evolution of the cost spent on the project",
        "d": "When the project will be over if the Product Owner removes work that is equal in effort to any new work that is added"
      },
      "correctAnswer": [
        "a"
      ]
    },
    {
      "id": 81,
      "question": "Who must do all the work to make sure Product Backlog items conform to the Definition of 'Done'?",
      "prereq": "Choose one answer",
      "answers": {
        "a": "The Scrum Master",
        "b": "The Development Team",
        "c": "QA Specialists",
        "d": "The Scrum Team",
        "e": "The Product Owner"
      },
      "correctAnswer": [
        "b"
      ]
    },
    {
      "id": 82,
      "question": "Who is responsible for engaging the stakeholders?",
      "prereq": "Choose one answer",
      "answers": {
        "a": "The project manager",
        "b": "The Development Team",
        "c": "The business analyst",
        "d": "The Product Owner",
        "e": "The team manager"
      },
      "correctAnswer": [
        "d"
      ]
    },
    {
      "id": 83,
      "question": "For what is the Scrum Master responsible?",
      "prereq": "Choose one answer",
      "answers": {
        "a": "The meeings and the objectives that a Scrum Team sets for itself",
        "b": "Managing the performance of the Scrum Team",
        "c": "Keeping track of resource allocation",
        "d": "The Scrum process being adopted and used properly"
      },
      "correctAnswer": [
        "d"
      ]
    },
    {
      "id": 84,
      "question": "When is it most appropriate for a Development Team to change the definition of 'Done'?",
      "prereq": "Choose one answer",
      "answers": {
        "a": "During the Sprint Retrospective",
        "b": "Prior to starting a new project",
        "c": "During Sprint Planning",
        "d": "Prior to starting a new Sprint"
      },
      "correctAnswer": [
        "c"
      ]
    },
    {
      "id": 85,
      "question": "A Scrum Team is only allowed to meet with stakeholders during Sprint Review.",
      "prereq": "Choose one answer",
      "answers": {
        "a": "True",
        "b": "False"
      },
      "correctAnswer": [
        "a"
      ]
    },
    {
      "id": 86,
      "question": "How often should Development Team membership change?",
      "prereq": "Choose one answer",
      "answers": {
        "a": "As needed, while taking into account a short term reduction in productivity",
        "b": "As needed, with no special allowance for changes in productivity",
        "c": "Never, because it reduces productivity",
        "d": "Every Sprint to promote shared learning"
      },
      "correctAnswer": [
        "a"
      ]
    },
    {
      "id": 87,
      "question": "Why does a Development Team need a Sprint Goal?",
      "prereq": "Choose one answer",
      "answers": {
        "a": "Sprint Goals are not valuable. Everything is known from the Product Backlog",
        "b": "A Sprint Goal ensures that all of hte Product Backlog items selected for the Sprint are implemented",
        "c": "A Sprint Goal only gives purpose to Sprint 0",
        "d": "The Development Team is more focused with a common yet specific goal"
      },
      "correctAnswer": [
        "d"
      ]
    },
    {
      "id": 88,
      "question": "Name three timeboxed events in Scrum?",
      "prereq": "Choose three answers",
      "answers": {
        "a": "Release Testing",
        "b": "Daily Scrum",
        "c": "Release Retrospective",
        "d": "Sprint Planning",
        "e": "Sprint Retrospective",
        "f": "Sprint 0",
        "g": "Sprint Testing"
      },
      "correctAnswer": [
        "b",
        "d",
        "e"
      ]
    },
    {
      "id": 89,
      "question": "Who has the final say on the order of the Product Backlog?",
      "prereq": "Choose one answer",
      "answers": {
        "a": "The Product Owner",
        "b": "The Development Team",
        "c": "The CEO",
        "d": "The Stakeholders",
        "e": "The Scrum Master"
      },
      "correctAnswer": [
        "a"
      ]
    }
  ]
}

